{
    "name": "Page",
    "alias": "page",
    "description": "",
    "keywords": [],
    "active": 1,
    "order": 3,
    "providers": [
        "Modules\\Page\\Providers\\PageServiceProvider"
    ],
    "aliases":{},
    "files": [
        "start.php"
    ]
}